{
    "company": "Makeup Blushes",
    "title": "Blushes to Give Every Skin Tone a Rosy Flush",
    "phone": "1234567890",
    "email": "jeffiver@makeupblushes.com",
    "slogan": "Get the perfect flush for your skin tone!",
    "callToAction": "Looking for a way to add some color to your cheeks? Blushes to Give Every Skin Tone a Rosy Flush is the perfect solution! With a range of shades to choose from, you can find the perfect hue to give your skin a healthy-looking glow.",
    "cardImage": "/static/images/screen.png"
}